Hierarchical Clustering Analysis — cluster • exploreit
…
#>  41  42  43  44  45  46  47  48  49  50  51  52  53  54  55  56  57  58  59  60 
#>   1   2   1   1   1   1   1   1   1   1   3   3   3   2   3   2   3   2   3   2 
#>  61  62  63  64  65  66  67  68  69  70  71  72  73  74  75  76  77  78  79  80 
#>   2   3   2   3   3   3   3   2   2   2   3   3   3   3   3   3   3   3   3   2 
#>  81  82  83  84  85  86  87  88  89  90  91  92  93  94  95  96  97  98  99 100 
#>   2   2   2   3   3   3   3   2   3   2   2   3   2   2   2   3   3   3   2   2 
#> 101 102 103 104 105 106 107 108 109 110 111 112 113 114 115 116 117 118 119 120 
#>   3   3   3   3   3   4   2   4   3   4   3   3   3   3   3   3   3   4   4   2 
#> 121 122 123 124 125 126 127 128 129 130 131 132 133 134 135 136 137 138 139 140 
#>   3   3   4   3   3   4   3   3   3   4   4   4   3   3   3   4   3   3   3   3 
#> 141 142 143 144 145 146 147 148 149 150 
#>   3   3   3   3   3   3   3   3   3   3 
# Add the clusters to the data (.fitted column added)
augment(data = iris, iris_clust, k = 4)
#> # A tibble: 150 × 6
#>    sepal_length sepal_width petal_length petal_width species .fitted
#>           <dbl>       <dbl>        <dbl>       <dbl> <fct>     <int>
#>  1          5.1         3.5          1.4         0.2 setosa        1
#>  2          4.9         3            1.4         0.2 setosa        1
#>  3          4.7         3.2          1.3         0.2 setosa        1
#>  4          4.6         3.1          1.5         0.2 setosa        1
#>  5          5           3.6          1.4         0.2 setosa        1
#>  6          5.4         3.9          1.7         0.4 setosa        1
#>  7          4.6         3.4          1.4         0.3 setosa        1
#>  8          5           3.4          1.5         0.2 setosa        1
#>  9          4.4         2.9          1.4         0.2 setosa        1
#> 10          4.9         3.1          1.5         0.1 setosa        1
#> # … with 140 more rows
…
