Calculate a dissimilarity matrix — dissimilarity • exploreit
…
    See also

    stats::dist(), vegan::vegdist(), vegan::designdist(), cluster::daisy(), factoextra::get_dist()

    Examples

SciViews::R
read("iris", package = "datasets") %>.%
  select(., -species) -> iris_num  # Only numeric columns from iris
# Compare the 150 flowers and nicely print the result
dissimilarity(iris_num, method = "manhattan")

#> Dissimilarity matrix with metric: manhattan
#> # A tibble: 150 × 150
#>    labels `1`   `2`   `3`   `4`   `5`   `6`   `7`   `8`   `9`   `10`  `11` 
#>    <chr>  <dst> <dst> <dst> <dst> <dst> <dst> <dst> <dst> <dst> <dst> <dst>
#>  1 1                                                                       
#>  2 2       0.7                                                             
#>  3 3       0.8   0.5                                                       
#>  4 4       1.0   0.5   0.4                                                 
#>  5 5       0.2   0.7   0.8   1.0                                           
#>  6 6       1.2   1.9   2.0   2.0   1.2                                     
#>  7 7       0.7   0.8   0.5   0.5   0.7   1.7                               
#>  8 8       0.3   0.6   0.7   0.7   0.3   1.3   0.6                         
#>  9 9       1.3   0.6   0.7   0.5   1.3   2.5   0.8   1.2                   
#> 10 10      0.8   0.3   0.6   0.4   0.8   1.8   0.9   0.5   0.9             
#> # … with 140 more rows, and 138 more variables: 12 <dst>, 13 <dst>, 14 <dst>,
#> #   15 <dst>, 16 <dst>, 17 <dst>, 18 <dst>, 19 <dst>, 20 <dst>, 21 <dst>,
#> #   22 <dst>, 23 <dst>, 24 <dst>, 25 <dst>, 26 <dst>, 27 <dst>, 28 <dst>,
#> #   29 <dst>, 30 <dst>, 31 <dst>, 32 <dst>, 33 <dst>, 34 <dst>, 35 <dst>,
#> #   36 <dst>, 37 <dst>, 38 <dst>, 39 <dst>, 40 <dst>, 41 <dst>, 42 <dst>,
#> #   43 <dst>, 44 <dst>, 45 <dst>, 46 <dst>, 47 <dst>, 48 <dst>, 49 <dst>,
#> #   50 <dst>, 51 <dst>, 52 <dst>, 53 <dst>, 54 <dst>, 55 <dst>, 56 <dst>, …
…
